Average Wait-Time
Electron-FF-medmedmedpu_20190315191924_runtimeMetrics.log: 865.839
Electron-BP-medmedmedpu_20190327103247_runtimeMetrics.log: 459.427
Average Execution-Time
Electron-FF-medmedmedpu_20190315191924_runtimeMetrics.log: 136.376
Electron-BP-medmedmedpu_20190327103247_runtimeMetrics.log: 148.845
Average Turnaround-Time
Electron-FF-medmedmedpu_20190315191924_runtimeMetrics.log: 1002.215
Electron-BP-medmedmedpu_20190327103247_runtimeMetrics.log: 608.272